[
    {
        "column": "Age",
        "coef": 0.095
    },
    {
        "column": "NumOfProducts",
        "coef": 0.064
    },
    {
        "column": "IsActiveMember",
        "coef": 0.052
    },
    {
        "column": "Balance",
        "coef": 0.025
    },
    {
        "column": "Geography",
        "coef": 0.018
    },
    {
        "column": "EstimatedSalary",
        "coef": 0.015
    },
    {
        "column": "CreditScore",
        "coef": 0.015
    },
    {
        "column": "Tenure",
        "coef": 0.012
    },
    {
        "column": "Gender",
        "coef": 0.011
    },
    {
        "column": "HasCrCard",
        "coef": 0.004
    }
]
